ecp5-test/hyperram_burst_test_sim.vcd
$comment Generated by Amaranth $end
$date 2026-07-22 17:57:29.584091 $end
$timescale 1 fs $end
$scope module bench $end
$scope module top $end
$var wire 1 ! clk $end
$var wire 1 " rst $end
$var wire 8 # current_phase $end
$var wire 8 $ state $end
$var wire 4 % burst_idx $end
$var wire 16 & expected $end
$var wire 32 ' addr $end
$var wire 16 ( write_data $end
$var wire 1 ) is_write $end
$var wire 1 * is_burst $end
$var wire 1 + bus_valid $end
$var wire 16 , readback $end
$var wire 1 - test_failed $end
$var wire 8 . burst_len $end
$var wire 16 / read_data $end
$var wire 1 0 test_passed $end
$upscope $end
$upscope $end
$enddefinitions $end
#0
$dumpvars
0!
0"
b0 #
b0 $
b0 %
b0 &
b0 '
b0 (
0)
0*
0+
b0 ,
0-
b0 .
b0 /
00
$end
#500000000
1!
1)
b1 $
b1101111010101101 (
1+
#1000000000
0!
#1500000000
1!
b10 $
#2000000000
0!
#2500000000
1!
b11 $
0+
#3000000000
0!
#3500000000
1!
b10000 $
b1 #
#4000000000
0!
#4500000000
1!
0)
b10001 $
1+
#5000000000
0!
#5500000000
1!
b10010 $
b1101111010101101 ,
#6000000000
0!
#6500000000
1!
b10011 $
#7000000000
0!
#7500000000
1!
b100000 $
0+
b10 #
#8000000000
0!
#8500000000
1!
1*
1)
b1000100010001 (
b1000000000000 '
b100 .
b100001 $
1+
#9000000000
0!
#9500000000
1!
b1 %
b10001000100010 (
#10000000000
0!
#10500000000
1!
b10 %
b11001000100010 (
#11000000000
0!
#11500000000
1!
b11 %
b100001000100010 (
#12000000000
0!
#12500000000
1!
b100010 $
b100 %
b101001000100010 (
#13000000000
0!
#13500000000
1!
b100011 $
0+
#14000000000
0!
#14500000000
1!
b110000 $
b11 #
#15000000000
0!
#15500000000
1!
0)
b0 %
b110001 $
1+
#16000000000
0!
#16500000000
1!
b1 %
1-
b10001000100010 &
